2.188147025307 0.615879094766 0.633333333333 1.775251244282 40 6
0.368884351589 0.539313622149 0.466666666667 2.041569733854 134 11
1.204332582968 0.658741005076 0.433333333333 1.422396428016 109 14
0.272547555189 0.403460512312 0.233333333333 2.103320248309 110 18
0.922619458902 0.337916418749 0.566666666667 1.415671962574 58 21
0.221680128798 0.025154155829 0.566666666667 2.998457292430 38 24
0.091348196622 0.328869684916 0.466666666667 2.712010929892 147 30
0.181763290174 0.224096829028 0.533333333333 2.617830242477 109 32
0.396848678546 0.474401940408 0.200000000000 1.703902572586 43 45
22.796216395143 11.958963239654 0.100000000000 1.834542842639 62 48
1.437580683527 0.607105681022 0.600000000000 1.498985096244 124 51
2.165405160834 1.067022958481 0.633333333333 1.376515560043 62 52
0.916940945701 0.762470613139 0.633333333333 1.898102828864 43 61
0.336330207718 0.366376762371 0.400000000000 1.991142768131 77 62
0.101413861066 0.032103917903 0.866666666667 1.782395734530 62 88
0.750647572890 0.358992784319 0.566666666667 1.449241272877 50 96
11.046872150955 0.786817319578 0.500000000000 1.800530172780 93 101
0.415015857233 0.221261482833 0.266666666667 2.221384070772 52 104
1.292413960428 0.311856222184 0.400000000000 1.759770275007 97 114
0.977779480556 3.901175714788 0.433333333333 2.269336809610 70 118
5.013094677537 0.814555040487 0.433333333333 1.321017836432 58 121
1.198305194832 0.049762515447 0.733333333333 2.281493032789 179 129
3.183030204849 0.539019476676 0.633333333333 1.566855787788 40 138
0.345120778920 1.126921524157 0.633333333333 2.183976311287 48 150
0.131402239005 0.532136092705 0.066666666667 1.915553493363 133 156
0.527161198745 0.540020789693 0.566666666667 1.852251174023 172 162
0.394144024126 0.413407481986 0.600000000000 1.902240995314 62 163
0.243391589066 0.598728227211 0.533333333333 1.824342753478 47 165
0.226567176741 0.505852478448 0.566666666667 2.115024505549 89 166
0.220400304710 0.234171195916 0.200000000000 1.918595558462 63 171
0.378294756101 0.548642068439 0.233333333333 1.757174112908 135 182
0.523481305289 0.246449622810 0.300000000000 2.000280755315 82 189
0.921364617888 0.061359436393 0.466666666667 1.547545741670 179 193
0.220788840811 0.083755266887 0.400000000000 1.720588218261 35 218
1.757038496149 0.728844697168 0.366666666667 1.348323575733 96 223
1.157019983734 0.614665348915 0.500000000000 1.556718093920 165 225
0.093908642831 0.467612952631 0.633333333333 2.845023802628 90 244
2.817569243511 0.542482907111 0.333333333333 1.495255338997 108 247
1.239471115327 0.968809938563 0.400000000000 1.534520921072 136 268
0.271743662762 0.429608449258 0.500000000000 1.727933797846 41 281
2.740294278890 0.604092172929 0.533333333333 1.251895271099 108 285
5.328934091735 0.402799658774 0.400000000000 1.317334610946 92 287
0.343293200538 0.354268678424 0.433333333333 1.954045159766 152 306
1.315111897038 0.740658806251 0.633333333333 1.510793633287 114 310
0.104074941669 0.407622369823 0.400000000000 1.896098520117 44 336
0.958645611947 1.237971711110 0.400000000000 1.855403604426 89 337
0.559148544056 0.513864363471 0.466666666667 1.481100089279 82 338
1.152419148829 0.396876847833 0.500000000000 1.830390179118 131 345
0.706566130800 0.659072612121 0.400000000000 1.406578072478 69 349
1.004704451301 0.478831561954 0.533333333333 1.837379329444 151 357
2.691541404576 0.450638652431 0.566666666667 1.406786437655 82 375
0.878503478451 0.514325518387 0.566666666667 1.811375769776 160 386
1.151813477100 0.356724996452 0.666666666667 1.533017528042 92 390
3.151404764995 0.516300914728 0.300000000000 1.475522214555 98 419
1.634869561983 0.860939069145 0.333333333333 1.548290259079 90 436
1.146977116588 0.615700188705 0.566666666667 1.505296321687 174 447
3.654654012570 0.432523916507 0.333333333333 1.148261075434 28 451
0.178631635469 0.222677283602 0.566666666667 1.699559967090 130 454
0.340518455889 0.458327238296 0.500000000000 1.489226474309 37 463
2.255133372526 0.512083520919 0.433333333333 1.498855150709 144 464
2.684808083339 0.850587068620 0.300000000000 1.659963352434 108 577
1.139187526617 0.477936708056 0.433333333333 1.558501689769 108 588
10.756868667390 0.418118157666 0.533333333333 1.553624711977 123 607
0.177416372946 0.006565366334 0.533333333333 1.992602205832 52 635
1.193203465858 0.631805770095 0.566666666667 1.875708453328 90 645
0.307917856425 0.831342980028 0.266666666667 1.983809813754 31 654
0.253048463898 0.578277178837 0.666666666667 1.981043793813 71 655
0.468974991003 0.629638460651 0.433333333333 2.006744974534 76 656
2.921596823916 0.768051447237 0.600000000000 1.370623628061 158 686
1.315741588364 0.651044408629 0.466666666667 1.698988394755 68 688
1.072076653995 0.150428915226 0.733333333333 1.710546821633 28 689
0.153916110816 0.264570203785 0.566666666667 1.781877255019 26 691
1.797166337228 0.710326407791 0.400000000000 1.822135940568 160 696
0.671510285690 0.955263334093 0.766666666667 1.686015718978 56 699
0.287873092163 0.519779026927 0.500000000000 1.942215021551 57 702
3.222605534833 0.282520890525 0.533333333333 1.334414813379 28 720
1.252243679556 0.495766654709 0.500000000000 1.564481312134 61 727
0.223570476072 0.209655441948 0.500000000000 2.073400562327 61 735
0.410210568216 0.450612988144 0.400000000000 1.926430979162 88 736
1.935620844539 0.488678865184 0.500000000000 1.533953512699 102 775
1.367329738642 0.117465676040 0.433333333333 1.457038981868 120 796
0.206392573357 0.707296390773 0.300000000000 1.802893173170 87 806
1.732216466065 0.579661661702 0.666666666667 1.729203412829 34 812
0.620816514971 0.529384715929 0.466666666667 1.797384115643 37 826
0.358593205756 0.302952223682 0.500000000000 1.485738176383 36 838
0.369973550356 0.246729961073 0.366666666667 1.496181861345 40 851
0.294688433714 0.572757722970 0.633333333333 1.423911328903 30 873
0.678956651508 0.798725136494 0.566666666667 1.386317389707 46 893
1.171841983294 0.684928221900 0.200000000000 1.389751354349 51 894
0.830424643544 0.966091652754 0.500000000000 1.557975811663 36 901
0.346872390271 0.292916910570 0.466666666667 1.304318367232 37 915
2.665651753272 0.315333067339 0.566666666667 1.221920791801 46 920
0.443804421404 0.602058756022 0.333333333333 1.390957951644 40 930
1.132631412608 0.610954073754 0.433333333333 1.474969017879 71 941
0.393304782765 0.014290281003 0.266666666667 1.643358327090 28 944
3.423955521050 0.675820029248 0.466666666667 1.362021940286 47 947
2.315325374786 0.546227844191 0.833333333333 1.295436112190 26 948
0.880511113186 0.447341124820 0.500000000000 1.283302744883 30 951
2.092713394643 0.445945693202 0.766666666667 1.416213913185 104 973
0.526091936435 0.945411935846 0.266666666667 1.576267552415 76 984
3.669867018367 0.507299147304 0.500000000000 1.631857215903 90 1018
1.166113346126 0.370621715907 0.600000000000 1.828361948343 108 1020
1.420029956516 0.242897994114 0.566666666667 1.596302431216 48 1026
1.732987183846 0.367583139625 0.500000000000 1.339808122387 35 1028
4.645699673534 7.580820077389 0.833333333333 1.520926684459 47 1049
1.546473826868 0.579087107666 0.333333333333 1.379328622618 52 1055
1.081662814317 0.582588292589 0.333333333333 1.828611824903 80 1076
0.594844972086 0.520333125386 0.166666666667 1.936388002078 59 1080
1.245870064361 0.463883719744 0.500000000000 1.252062720007 49 1087
16.029591032613 4.029625468134 0.600000000000 1.769596343984 70 1093
0.621533457970 1.099253208910 0.500000000000 1.484496388620 50 1094
1.895404480901 0.372006365039 0.566666666667 1.458387332831 140 1095
6.571065525638 4.735838098697 0.166666666667 1.808597685463 53 1127
31.866428054567 0.725918677307 0.466666666667 1.586656143394 29 1130
0.831354247773 0.737168312987 0.333333333333 1.797837225567 102 1148
8.783907463685 0.604515310834 0.433333333333 1.902613377133 30 1156
6.356675631697 0.514914546942 0.466666666667 1.946589872269 64 1172
4.758234323808 1.180828253736 0.533333333333 2.127301871797 69 1210
0.115564238584 0.116400471464 0.433333333333 2.128566182803 126 1214
3.327511774484 0.973176364700 0.533333333333 1.239461843773 49 1235
5.511257832193 0.465369793850 0.600000000000 1.386292762305 33 1244
0.571726986564 0.424874115096 0.466666666667 1.750856788398 122 1258
0.655371016217 0.828685805731 0.500000000000 1.546492498526 136 1269
1.765874476822 6.244535602582 0.733333333333 2.228633205572 28 1279
0.908595507277 0.616724834137 0.566666666667 1.404815476929 152 1295
2.759598630592 0.473197367778 0.433333333333 1.302049530968 28 1303
0.937346336481 0.696813519993 0.466666666667 1.323913989726 44 1305
1.759967837575 0.848552718330 0.433333333333 1.276546259653 89 1306
1.748409709932 0.483379247543 0.633333333333 1.366749047131 118 1308
1.473533367855 0.626834016218 0.500000000000 1.446152650480 64 1312
2.057657551938 1.020248208783 0.600000000000 1.367731682598 35 1316
1.191417082324 0.954079121842 0.366666666667 1.495818010029 38 1324
0.609414025242 0.224504950769 0.333333333333 2.015611030915 49 1356
0.810648582014 0.418043916427 0.666666666667 1.316820670140 82 1358
0.516239062356 0.284023471437 0.466666666667 2.007668756872 54 1376
3.435247843973 0.648259764877 0.700000000000 1.318823191167 45 1383
0.070687304898 0.105041753370 0.333333333333 1.957270217725 51 1390
0.884397642164 0.776809462437 0.533333333333 1.499160818559 70 1405
0.075166814805 0.347375211677 0.433333333333 3.299226925475 121 1411
0.254206617162 0.292031294441 0.500000000000 1.899273482884 165 1433
0.871950042935 0.565594661667 0.533333333333 1.279948724899 109 1442
13.456416198337 5.135196577931 0.666666666667 1.431144893009 86 1470
0.547167139768 1.222347156495 0.433333333333 1.252280759576 34 1509
1.619732885899 0.551902401293 0.166666666667 1.276941117485 63 1537
18.562461855877 1.354642717807 0.466666666667 1.708541790238 50 1553
2.325382411237 0.936360806944 0.633333333333 1.844442764479 34 1556
8.437205761552 2.588327496991 0.400000000000 1.532395039754 70 1561
0.688264862401 0.402158748126 0.500000000000 1.595134250168 44 1571
0.594127712247 0.909733852759 0.233333333333 1.385266865654 45 1575
0.590461351343 0.247745063122 0.500000000000 1.733011674531 48 1599
3.865403967555 0.628476793638 0.466666666667 1.780424000183 53 1616
0.448788761704 0.729270913825 0.333333333333 1.867355489527 123 1639
18.100369005015 12.076737302454 0.900000000000 1.490982336697 58 1653
9.444654679631 0.482144111023 0.600000000000 1.313113380948 74 1661
0.330160515595 0.556182292667 0.533333333333 1.405080916810 48 1700
0.666991496390 0.559325948088 0.633333333333 1.677626015076 30 1708
6.007350871556 0.687832188245 0.466666666667 1.338186506867 77 1736
1.474078810898 0.533060266123 0.366666666667 1.341951488408 75 1757
1.923410402059 0.544356132855 0.600000000000 1.720731384828 55 1775
1.151556830248 0.382747687357 0.566666666667 1.958786106702 53 1791
0.738405462595 0.210456644456 0.700000000000 2.360161639669 28 1805
50.824147024493 0.310873681026 0.533333333333 1.736277623973 25 1834
1.792674887631 0.429885532621 0.600000000000 1.191003439395 84 1866
1.311987117904 0.512826911231 0.566666666667 1.424316162808 35 1882
1.352515088241 0.637513430766 0.500000000000 1.528753589706 131 1887
3.045895833186 0.296468022989 0.533333333333 1.395070750132 42 1890
0.172323523019 0.464228662218 0.833333333333 1.788837657806 38 1896
3.929685072438 0.726130831161 0.333333333333 1.435183091863 65 1900
0.904478050298 0.471965435201 0.600000000000 1.659082661716 73 1928
2.119498421328 0.960625040186 0.366666666667 1.289369737729 164 1936
4.743736927212 0.191475425246 0.766666666667 1.553557517128 71 1982
0.224389278487 0.228718022868 0.433333333333 1.946016462498 120 1986
3.263669668475 0.401995675153 0.433333333333 1.218578787915 96 1991
0.121597984333 0.504930287074 0.500000000000 2.130763749625 74 2016
13.701254446467 0.355055134739 0.400000000000 1.546106016951 25 2029
1.025039138628 0.411843263182 0.400000000000 1.270460345923 49 2034
2.072485696694 0.220386403432 0.466666666667 2.259255590586 51 2040
2.091559101422 0.679083399668 0.533333333333 1.390559706680 27 2046
0.392108841520 0.581453435110 0.500000000000 1.473198185145 78 2047
5.702813013301 1.182897370221 0.033333333333 1.336882940221 33 2061
0.733099971840 0.730234268296 0.400000000000 1.376548248003 32 2071
18.198337247095 0.851039739763 0.466666666667 1.694415336974 71 2075
6.451186234869 3.980429364389 0.300000000000 1.501919025815 94 2094
4.702607511068 3.406180001388 0.433333333333 1.502572504718 112 2096
1.863642522484 4.920074798910 1.000000000000 1.433651402450 34 2099
8.213145233184 11.391503474313 0.500000000000 1.641208076935 112 2118
5.634057534059 1.083074946370 0.500000000000 1.578568569898 73 2205
1.409142030972 0.633851212900 0.633333333333 1.508190355689 57 2234
0.431428616957 0.739583753790 0.466666666667 2.009416591705 84 2239
8.421702939614 1.478803142644 0.500000000000 1.484589301756 52 2249
4.457884112274 0.430563887194 0.566666666667 1.250282577503 58 2251
1.875406756378 0.531491989412 0.033333333333 1.340025156757 25 2255
13.784876269707 17.806932938719 0.000000000000 1.916654308295 28 2262
1.377986507087 0.620200234952 0.466666666667 1.574172431687 92 2263
0.892029777119 0.353802433425 0.466666666667 1.781071154222 98 2264
1.962842585189 0.501903250365 0.600000000000 1.366730985813 175 2266
1.235911927822 0.407092138301 0.466666666667 1.887737144725 166 2278
2.015821344844 1.752341596607 0.866666666667 2.078456100669 53 2286
20.111800884351 2.650856809802 0.666666666667 2.163234974795 34 2287
2.511738243366 0.497402768338 0.533333333333 1.290933750960 165 2302
0.902590671749 0.454311437867 0.700000000000 1.544901561092 100 2310
7.963835896973 0.560008686497 0.533333333333 1.395518092379 148 2348
2.356536852407 1.096393295158 0.266666666667 1.471500926419 28 2350
2.723897013707 0.632225835443 0.400000000000 1.141218435474 28 2379
0.576536163151 1.229088329464 0.366666666667 1.569240322645 31 2380
2.226982264093 1.423407273476 0.133333333333 1.210837361867 40 2422
0.612719488530 1.326705990961 0.100000000000 2.288372160162 28 2426
0.473999345111 0.390134575423 0.466666666667 1.901488218800 131 2428
0.469271093593 0.483869268866 0.733333333333 1.743076398264 70 2446
9.874415159695 0.363381660855 0.566666666667 1.583722004464 79 2447
11.890296011384 0.993163388856 0.500000000000 1.410281524136 38 2459
1.958429888219 0.747196060127 0.366666666667 1.382683183711 113 2462
0.648451973512 0.496630879097 0.400000000000 1.184830563379 36 2464
2.417023991594 0.517964850630 0.666666666667 1.442811781461 113 2505
2.003845457944 0.365632268306 0.566666666667 1.443566312961 76 2506
0.348043771518 0.265668896409 0.633333333333 1.753280713283 38 2535
0.537284786021 0.649032462791 0.600000000000 1.492472854761 49 2536
0.566882563189 0.671467549621 0.633333333333 1.735620547831 50 2537
0.178768072674 0.256029152584 0.466666666667 1.784211373359 57 2545
0.604632316278 0.326478063850 0.500000000000 1.769922144407 153 2546
3.520068287452 1.138926136340 0.433333333333 1.416145788973 76 2555
0.066476391571 0.036452337439 0.400000000000 3.370644741816 47 2557
0.155874435981 0.824880034566 0.500000000000 1.808989174688 41 2579
1.183936858510 0.428389115009 0.433333333333 1.860500019997 108 2596
0.363437311324 0.363375167970 0.233333333333 1.776424802932 55 2624
0.426567317131 1.129120114591 0.266666666667 1.689334699580 80 2649
27.994728366488 6.114232214799 0.666666666667 1.489884817496 30 2661
0.418588055587 0.326899837522 0.466666666667 2.008324935515 119 2667
0.345500379731 0.319925326753 0.466666666667 1.963789414013 27 2668
2.231087747209 0.557475611547 0.500000000000 1.503720823206 174 2674
4.169856560563 0.441199869434 0.500000000000 1.255206950306 104 2686
1.574155446720 0.534066339464 0.000000000000 1.363433417870 25 2691
24.988754301812 0.610989778925 0.533333333333 1.626480397332 154 2701
1.479442485863 0.550239329242 0.600000000000 1.842974229270 100 2712
16.641590492476 1.660474575054 0.666666666667 1.647790908361 55 2713
2.761739798872 0.302647203655 0.400000000000 1.274873397225 77 2718
8.738140823348 1.074636662491 0.366666666667 1.512592614006 45 2723
0.071294292006 1.073751240140 0.900000000000 1.937385885618 27 2728
1.546869855680 0.470868883432 0.233333333333 1.706607686873 51 2812
0.490856408072 0.402814229003 0.633333333333 1.545807459149 93 2822
0.311136392967 0.415198724193 0.366666666667 1.575959672774 50 2830
1.787325126793 0.527027094090 0.400000000000 1.439913738569 141 2832
1.402190522448 0.693149817395 0.566666666667 1.294805130130 46 2845
0.204054903222 0.508478621158 0.000000000000 1.813101622717 40 2847
0.586700246039 0.328572998615 0.466666666667 1.795411683396 112 2856
1.266599638035 0.969210831411 0.366666666667 1.302627710525 36 2867
2.471674530889 0.478363991255 0.466666666667 1.724646315370 168 2871
0.900122880112 0.558563211881 0.600000000000 1.464080411266 100 2879
0.774821464083 0.399974845777 0.600000000000 1.503413354495 107 2880
0.055937518770 0.116037851378 0.633333333333 1.759780964917 48 2921
1.734358594987 0.779182506158 0.533333333333 1.337818363926 166 2933
3.566817027643 0.471966623849 0.433333333333 1.381079674038 136 2942
12.469826708806 0.667721298013 0.700000000000 1.455778196430 27 2971
0.139676839386 0.383364017484 0.266666666667 2.682348111048 29 2980
0.206098652695 0.073952505710 0.600000000000 1.907004793136 74 2981
3.595566936005 0.426460121352 0.366666666667 1.320756058458 29 3003
5.994538688033 18.419471771911 1.000000000000 1.708913177220 40 3006
7.686824569822 0.897316743517 0.433333333333 2.331933056365 162 3010
0.830688463764 0.587515958232 0.300000000000 2.701528212923 42 3013
0.622302790684 1.302088958271 0.533333333333 1.763621950002 28 3027
2.831735654862 0.675120380667 0.466666666667 1.226596151441 176 3041
13.891077639824 0.674360274361 0.500000000000 1.713307698528 116 3059
2.846854221273 0.586307069376 0.466666666667 1.679200249432 88 3087
0.880748297499 0.533263253612 0.433333333333 1.411812136122 158 3116
0.387488535822 0.808496967527 0.466666666667 2.297994102864 56 3140
2.734415242578 0.796629151094 0.500000000000 1.305571940328 139 3146
1.487769638996 0.630861881592 0.500000000000 1.438978192597 141 3186
0.904650808805 0.298413267735 0.633333333333 1.495971975959 41 3187
4.486683609427 0.441775835853 0.600000000000 1.435419096251 136 3188
3.099013204137 0.641577451226 0.533333333333 1.480328274313 109 3245
4.868558359644 0.364403334449 0.433333333333 1.366376399132 172 3248
14.840115430306 0.649787437774 0.733333333333 1.368631583003 31 3269
0.169523194616 0.572151629556 0.766666666667 1.844549895604 101 3285
0.239163897763 0.768152582473 0.166666666667 1.932846649598 55 3287
0.664231780449 0.522388461959 0.333333333333 1.732758815895 82 3291
6.981656750392 1.005367421009 0.766666666667 1.324731081888 49 3300
3.239821891173 0.966677621893 0.400000000000 1.655755142698 32 3336
7.086255074702 15.859676302375 0.000000000000 1.559355073900 61 3377
0.178097267320 0.467236670515 0.500000000000 1.692216755021 26 3381
0.946441137654 0.470522012852 0.366666666667 2.012796137089 124 3383
3.283146045445 1.055955298057 0.300000000000 1.323763823114 105 3384
0.333416499962 0.515549534696 0.333333333333 1.700386106912 60 3390
0.593134325681 0.621773244882 0.566666666667 1.718763064004 65 3401
1.301175573443 0.034188628607 0.833333333333 2.666690141698 75 3416
3.164766208223 0.928179026212 0.633333333333 1.699278120267 29 3429
4.155819738371 4.601624624292 0.366666666667 1.430515291472 67 3442
3.605839156032 0.494333005823 0.366666666667 1.233851746082 117 3455
2.660874816896 0.782886181037 0.466666666667 1.411234473607 110 3457
1.233688316800 0.392082483229 0.233333333333 1.618435625005 59 3483
0.453294029148 0.278272936473 0.333333333333 2.152617073772 66 3505
0.522450576986 0.323453279036 0.333333333333 1.789792353887 79 3508
6.522882607282 0.858775483944 0.400000000000 1.351138723863 107 3513
5.591709066074 0.840564480884 0.633333333333 1.339344081359 41 3515
3.458079391499 0.584535907711 0.300000000000 1.312662596492 34 3541
1.891056939105 0.605917978908 0.400000000000 1.455424293419 30 3543
3.052658837875 0.625752121962 0.400000000000 1.329060986916 56 3549
1.434766804279 0.468153841016 0.566666666667 1.312400348606 143 3587
1.442738629615 1.444729964911 0.766666666667 1.168704670346 56 3601
1.414616795861 0.562444408969 0.600000000000 1.370689513030 169 3606
1.321690279884 0.312723415712 0.500000000000 1.827175869064 47 3608
0.312574692495 0.281510246581 0.466666666667 1.657259566667 41 3640
17.338382852790 0.811859237502 0.466666666667 1.597527554719 115 3641
0.820441759599 0.833787920463 0.733333333333 1.313440757574 78 3662
4.685009148992 0.308230735966 0.600000000000 1.720366693722 33 3701
0.885654036183 0.458868240662 0.433333333333 1.182986665078 47 3713
1.941754880871 0.672958482553 0.466666666667 1.371854535287 57 3738
2.350979993400 0.508385728311 0.600000000000 1.467354659074 101 3741
12.279086436880 0.491005211417 0.500000000000 1.533252607081 31 3757
2.715706870562 0.571966902575 0.566666666667 1.319227242079 53 3762
1.837376803303 0.590477536446 0.433333333333 1.365377865572 98 3768
0.655489642745 0.253342665351 0.600000000000 1.470839466974 53 3777
0.509751373979 1.941853986911 1.000000000000 1.267197060994 28 3794
17.277602765865 8.567083204195 0.766666666667 1.458600181791 66 3796
10.509778410527 0.325464958881 0.500000000000 1.626315077061 91 3813
2.434864889481 0.288362229450 0.733333333333 1.397541350844 41 3817
3.334691868072 0.781691166250 0.566666666667 1.877872517481 73 3827
0.296964485967 0.525049138007 0.566666666667 2.086678629754 149 3844
0.347998413774 0.482680011607 0.866666666667 1.441325477723 37 3853
1.315278069218 0.431527414105 0.533333333333 1.579703360117 107 3854
12.198943661545 0.696475708359 0.600000000000 1.573661442499 76 3866
0.852821376103 0.326118134291 0.500000000000 1.650415175554 56 3907
10.728034192463 16.686958093264 0.000000000000 1.472919903868 28 3923
0.681739073571 7.353700624436 0.633333333333 1.994852115844 27 3934
0.372310802675 0.962871401784 0.633333333333 1.312148749359 42 3941
1.134010026895 0.538407021901 0.733333333333 1.463179580264 104 3945
4.493226815111 0.564330856754 0.500000000000 1.385024029242 76 3954
6.051612223501 0.733240469798 0.533333333333 1.497017467016 43 3959
1.068678701954 0.432390453834 0.466666666667 1.723530988920 70 3962
0.537255579873 0.395939625801 0.400000000000 1.736735091454 108 3979
2.799740586316 0.331563315304 0.766666666667 1.440740703627 46 3985
0.249206800043 0.462741757265 0.500000000000 1.781441213669 52 3986
0.253172991837 0.279339920775 0.233333333333 1.762444560955 56 3988
0.403297131199 0.560592335293 0.433333333333 1.702809794224 60 3992
4.245648071521 0.502292093685 0.600000000000 1.126842749390 55 4007
0.715772591023 0.522478893896 0.466666666667 1.574867144067 174 4020
3.290205388017 0.547721507363 0.566666666667 1.417906926496 147 4027
0.396923541116 0.516571675292 0.633333333333 1.714531139172 144 4057
1.527988482005 0.483514189140 0.500000000000 1.628141998643 173 4060
0.794210731598 0.489599450197 0.700000000000 1.428183864869 41 4072
0.219314687980 0.943208440002 0.000000000000 1.681176807902 25 4081
1.451186666919 0.332628503991 0.733333333333 1.203694817170 49 4088
1.497228229509 0.351037133160 0.633333333333 1.309157110971 95 4118
2.920207914297 0.553388915664 0.633333333333 1.288733999534 59 4127
3.269894256772 0.300214292285 0.533333333333 1.218948708701 26 4133
0.132865623945 0.180637136472 0.400000000000 2.566728312574 72 4138
0.969748685508 0.308261160130 0.466666666667 1.686355274970 72 4150
8.124308083660 1.045899369532 0.333333333333 1.189449861501 62 4186
1.121562569048 0.861363099476 0.633333333333 1.430980912574 45 4189
6.225249989063 14.455998913083 1.000000000000 1.800143747612 31 4204
6.928142850540 0.358299414150 0.433333333333 1.612396958842 112 4226
0.217184400555 0.516543567600 0.466666666667 1.772973918811 66 4242
0.455209412608 0.283148673169 0.266666666667 1.279511147102 29 4247
1.015412792188 0.327104212101 0.600000000000 1.563829634392 33 4258
4.258989970013 0.514884871898 0.533333333333 1.290486564359 120 4264
0.953398606366 0.846794272850 0.300000000000 1.246918045851 26 4266
0.479533421668 0.289547115668 0.666666666667 1.781241607539 35 4271
0.479799698663 0.489021979925 0.566666666667 1.615042224031 70 4280
0.295138816411 0.245142307445 0.500000000000 1.725316362378 43 4289
0.922262236388 0.388213739175 0.600000000000 1.405560997826 144 4292
8.489248360368 0.798669037298 0.500000000000 1.874408098432 39 4294
0.288808215638 0.285058383659 0.400000000000 1.661090825277 33 4305
8.756339820815 12.736376775660 0.166666666667 1.526250526775 65 4307
0.131614989550 0.405464983037 0.266666666667 2.812333314265 77 4332
1.155227561002 0.868800687495 0.666666666667 1.425701205623 35 4341
2.281245840767 0.177776796249 0.500000000000 1.509686297472 45 4362
9.008202406562 0.634379834300 0.500000000000 1.366336817129 77 4365
1.310891684196 0.026012886347 0.600000000000 1.386061018880 81 4370
0.628385899231 0.395918161738 0.300000000000 1.727971504961 32 4383
3.646491545631 0.481324505158 0.500000000000 1.362889351344 64 4411
20.942320157290 1.194807772126 0.466666666667 1.643719188595 69 4415
1.418774271658 0.527577964587 0.433333333333 1.677265521325 117 4449
1.986004165607 0.595031160444 0.466666666667 1.510189302733 100 4453
0.419972202939 0.462866883557 0.400000000000 1.674023600822 42 4454
2.273750863123 0.419353291285 0.466666666667 1.467371391401 93 4468
1.446886988326 0.529494537435 0.433333333333 1.484289824038 154 4470
0.428948062512 1.090552135195 0.300000000000 1.391963704912 35 4497
0.846808408933 0.461021382213 0.800000000000 1.208259709645 30 4503
0.914761937006 0.354509936627 0.466666666667 1.558994060383 143 4516
3.603150124267 0.400543927467 0.366666666667 1.217087990998 29 4533
0.696002377628 0.357784669066 0.466666666667 1.964779249969 32 4538
3.159104251126 0.672223474903 0.500000000000 1.938979203985 118 4559
6.992583571136 1.551788854979 0.100000000000 1.392745707525 55 4565
1.075299027941 0.507405163489 0.433333333333 1.428316905107 72 4571
2.021213219672 0.523946733247 0.433333333333 1.426116101882 145 4586
1.665153574001 0.667968668913 0.400000000000 1.270586845415 105 4588
1.703788468362 0.682345685406 0.366666666667 1.882753097296 113 4589
0.188717150671 0.462419531013 0.466666666667 2.305442057575 86 4590
2.131887547163 0.413094262364 0.400000000000 1.588052925887 67 4597
2.314863733429 1.090374156260 0.400000000000 1.282439752511 45 4599
3.228931309446 0.609955937341 0.400000000000 1.367604229427 93 4621
1.122952477729 0.733649092935 0.533333333333 1.593394802026 87 4628
0.501686535077 0.656124698167 0.966666666667 1.352605530914 25 4648
0.398193779694 0.273926505634 0.400000000000 1.898793381321 82 4671
1.878215305136 0.823242513881 0.400000000000 1.737911988847 73 4685
1.951881962455 0.482810132505 0.500000000000 1.325283986259 87 4695
0.276889487787 0.302390629203 0.600000000000 1.836303479352 59 4705
3.905410968946 0.594808725203 0.400000000000 1.398588941226 28 4762
0.304593296101 0.462928369095 0.433333333333 1.890718891041 107 4763
1.422318863053 0.473523731323 0.500000000000 1.436156183887 56 4765
2.315933436284 0.351893079306 0.433333333333 1.367677093449 74 4767
0.232031597836 0.567780657603 0.566666666667 1.846916968666 103 4774
10.146038941127 0.352978484953 0.466666666667 1.973801950245 43 4775
1.472461261048 0.638260471697 0.466666666667 1.441900098549 132 4784
0.524978765775 0.573582667708 0.366666666667 1.696530114531 48 4787
12.710028925309 0.453863127175 0.466666666667 1.737272107034 112 4806
4.609749663515 0.818900066448 0.466666666667 1.268546554259 69 4828
0.660419552931 0.515921283811 0.433333333333 1.797133113963 128 4830
2.327019872747 0.770424905984 0.500000000000 1.322288318856 110 4843
0.449437916514 0.219889326904 0.600000000000 1.683259033305 81 4881
1.757688485189 0.679196761689 0.466666666667 1.307974901915 82 4883
0.383508557629 0.368131551023 0.500000000000 1.360890485055 52 4888
1.403347376825 0.356949034806 0.633333333333 1.283096340887 106 4897
0.558219159632 0.291624792486 0.500000000000 1.931163166929 29 4903
8.385230830089 0.787877892063 0.400000000000 1.100314293958 31 4916
4.178474205502 0.877954302915 0.466666666667 1.248948001192 163 4918
5.947837732047 0.070412026912 0.733333333333 2.845098402879 108 4923
0.699650721760 0.066048973906 0.733333333333 2.920738933635 65 4924
4.719391692281 0.085711112802 0.700000000000 2.809914392879 109 4926
0.912228122470 0.348994889617 0.433333333333 1.367516134323 122 4930
1.038560195818 1.227018552065 0.900000000000 2.339851261901 74 4965
0.998806733882 0.679429918646 0.366666666667 1.919690686615 32 4985
2.284446699423 0.320221709272 0.600000000000 1.350080632927 89 5021
21.504845217872 0.530026966764 0.533333333333 1.756620107065 67 5027
1.897361580678 0.429895018176 0.466666666667 1.527929071533 44 5039
10.592105681849 0.447184948129 0.600000000000 1.278863241383 31 5050
1.190650784082 0.450986810302 0.433333333333 1.406064562117 37 5051
0.631684084388 0.324570226872 0.433333333333 1.818174003489 52 5090
1.233908020218 0.227559165441 0.533333333333 1.631058660210 35 5119
1.536470043206 0.623272121654 0.500000000000 1.592409693619 172 5136
0.564539029905 0.197801282442 0.633333333333 2.617107872593 57 5141
0.917109134229 0.667770666848 0.400000000000 1.551025840399 30 5164
11.126921583496 0.885590798219 0.500000000000 1.180530696830 54 5169
0.292357014840 0.452038670341 0.733333333333 1.879510661359 54 5179
1.872913929254 0.387701539882 0.566666666667 1.278985428037 109 5180
0.916435805736 0.297663688166 0.600000000000 1.719105419442 26 5192
0.174998501696 1.125390686781 0.833333333333 2.370705328050 34 5202
0.616452067873 0.437852785025 0.466666666667 1.655651750580 116 5217
1.053983704576 0.478527743748 0.566666666667 1.582618166640 106 5222
0.845372036284 0.226381548824 0.500000000000 1.411816679390 26 5233
7.861372049043 0.424101623612 0.633333333333 1.127268850254 35 5235
14.635561832191 0.677170406298 0.500000000000 1.682339551532 67 5238
0.781852641615 0.562561583468 0.666666666667 1.355882301870 54 5239
0.636951832306 0.792327488886 0.800000000000 1.388603367894 51 5254
0.139670063626 0.388416058129 0.566666666667 2.095912083143 36 5289
4.097221590659 2.465838344209 0.300000000000 2.058337689219 52 5306
0.931032755956 0.894003066559 0.566666666667 1.674161673530 114 5320
24.708722857383 6.849579967897 0.033333333333 1.701441890809 43 5328
0.062444511220 0.131000402736 0.100000000000 2.324512131933 42 5332
1.058217617336 0.642545410870 0.566666666667 1.828681937382 49 5334
7.004000626786 0.694700292160 0.466666666667 1.960910188959 35 5344
0.317699591620 0.547269345017 0.600000000000 1.772585080743 69 5346
0.509208619131 0.253581843806 0.566666666667 1.864627890187 85 5357
0.610045603912 0.262738422270 0.266666666667 1.448040023825 25 5359
4.052996220959 0.963426886380 0.566666666667 1.237813933668 63 5370
0.186951935696 0.466506769011 0.766666666667 2.075148553647 51 5394
1.038308457174 0.779261143033 0.166666666667 1.414478528165 44 5433
0.596435872865 0.401916957577 0.400000000000 1.945986598139 111 5437
0.273558628793 0.348918643283 0.466666666667 2.012178459932 98 5438
2.888974819720 0.608163046689 0.500000000000 1.503117143257 99 5444
0.821379332056 0.514920091282 0.666666666667 1.819045395171 158 5469
0.862075890917 0.590336486715 0.600000000000 1.294472166860 45 5474
0.538889748592 0.562930851494 0.600000000000 1.463798585111 164 5496
0.284012423032 0.421160189783 0.200000000000 2.086057352460 42 5535
10.209305840588 0.791232659471 0.533333333333 2.032381030560 140 5548
1.345579885152 0.472968050684 0.333333333333 1.680766147344 149 5597
1.717402536219 0.465270631323 0.733333333333 1.487420487341 35 5604
2.075938271448 0.329929022403 0.500000000000 1.749984933511 116 5606
1.112557399952 0.634688415097 0.666666666667 1.713021842756 179 5614
3.365640152493 0.535275765808 0.433333333333 1.355302983773 25 5616
2.069545475751 0.341805729919 0.500000000000 1.689476616093 177 5622
10.654979901356 0.413976268947 0.500000000000 1.994442897272 81 5628
24.217787997032 0.777661328358 0.533333333333 1.711923144196 124 5631
0.480620333577 0.560552577149 0.466666666667 1.970261799911 174 5644
1.023363019271 0.401109547167 0.600000000000 1.343556650339 83 5654
0.459471583029 0.208682247876 0.533333333333 1.936492116760 67 5663
0.680942120757 0.275927995279 0.500000000000 1.860686642163 75 5667
0.230420816164 0.529501509302 0.566666666667 1.998263005749 38 5679
0.542364449399 0.844978460003 0.633333333333 1.931061024819 103 5692
1.027879390255 0.909903609272 0.500000000000 1.362142498987 114 5701
4.009482339791 1.930079369890 0.366666666667 1.173971880975 29 5702
1.250960096566 0.099217135408 0.833333333333 2.641838082309 47 5715
2.776572715273 0.486108391035 0.533333333333 1.383118113990 60 5718
1.918977106326 0.441114862359 0.666666666667 1.340265266712 85 5740
0.586159628378 0.283796394728 0.566666666667 0.962643518569 25 5754
7.122351803838 10.453409850465 0.000000000000 1.596497570014 38 5771
0.330741113602 0.699377397529 0.666666666667 1.308188126207 39 5781
1.654630860494 0.516598309911 0.333333333333 1.776281358730 53 5789
0.530416460588 0.069146291727 0.266666666667 2.178156695925 136 5792
2.468864394821 0.489187562748 0.466666666667 1.395234450955 145 5810
3.572419616994 7.070177341173 0.266666666667 1.417049310490 60 5820
0.147348830165 0.574589684799 0.533333333333 1.644174176301 34 5826
1.132644276004 0.862256989034 0.333333333333 1.384226432671 76 5829
0.911903454150 0.394368365963 0.500000000000 1.535195343808 93 5830
5.124752273384 0.482129180721 0.500000000000 1.350695621739 142 5832
0.161137540272 0.762820111820 0.133333333333 2.057459359820 29 5835
0.128988396980 0.757056336961 0.400000000000 2.031007541626 110 5836
1.533746882724 0.415085038578 0.500000000000 1.302464708551 37 5865
0.604292704427 0.753704234876 0.633333333333 1.709845364698 134 5875
1.983514812958 0.136273218486 0.500000000000 1.547356307211 104 5895
0.699331870163 0.429342384062 0.533333333333 1.528659818496 133 5896
1.101716873778 0.452688980595 0.300000000000 1.410908198347 42 5901
1.174066497446 0.404966314074 0.733333333333 1.797117065017 131 5902
24.983191028594 0.759437300057 0.533333333333 1.973896681038 29 5905
4.860083037752 0.611259331639 0.400000000000 1.244561665807 34 5928
1.769423468641 0.210707722134 0.466666666667 1.549028521661 27 5929
1.203178555501 0.330062431323 0.433333333333 1.568567300205 67 5941
0.260126678938 0.206893168664 0.233333333333 2.656023224295 46 5943
1.180159459412 0.516822643689 0.466666666667 1.624413867660 126 5945
5.489469230137 0.355184722668 0.433333333333 1.485454314920 42 5959
1.647649924282 0.673908044413 0.466666666667 1.418071551028 122 5968
0.462509278094 0.408436689646 0.066666666667 1.553431402022 48 5985
0.753956054035 0.643096513493 0.700000000000 1.266005618859 56 6010
3.422767408100 0.879743109811 0.266666666667 1.258648189280 68 6013
0.489001115080 0.512307082152 0.366666666667 1.650166053393 113 6014
0.525158000175 0.693604678390 0.566666666667 1.859965057809 114 6015
0.742228780257 0.377867291249 0.400000000000 1.262338157008 76 6059
0.603442146322 1.224221880665 0.400000000000 1.244695509401 43 6071
3.385433774936 0.535929368042 0.433333333333 1.368252973838 104 6090
8.404339220083 3.510906891119 0.666666666667 1.551505715877 51 6097
0.950384493068 0.462491766554 0.666666666667 1.701148915279 101 6108
0.125382350939 0.442223134578 0.666666666667 2.945267622853 70 6135
1.207163928698 0.556152966385 0.566666666667 1.518790661820 91 6145
0.421324846905 0.240106027982 0.366666666667 1.444521618048 91 6154
2.186131634823 0.486346528655 0.433333333333 1.386928759246 33 6155
0.855575431202 1.362388416535 0.666666666667 1.284992722013 38 6159
1.064327233620 0.684620233704 0.866666666667 1.422022518910 52 6173
4.864445401882 1.133980765145 0.533333333333 1.233364676871 88 6182
0.304130102630 0.300407083284 0.333333333333 1.948419243293 34 6184
1.409138978350 0.764046460522 0.400000000000 1.451602001730 72 6208
0.482440995210 0.297348411040 0.533333333333 1.745967736703 78 6212
1.146176939694 0.441599745159 0.366666666667 1.990325814638 40 6221
1.523335847193 0.774661609584 0.266666666667 1.372225993093 75 6235
6.899770307635 0.720284604491 0.633333333333 1.231956561739 75 6236
1.870506420177 0.341452610542 0.466666666667 1.294571334317 27 6246
2.661477262148 0.976594523484 0.300000000000 1.383726605904 71 6252
17.187279171576 0.473505528828 0.433333333333 1.645135294283 70 6259
0.108989544622 0.615638003998 0.233333333333 1.415567533413 29 6264
0.254695550369 0.585356403938 0.433333333333 1.595036114806 66 6288
4.479109914761 0.549555735461 0.400000000000 1.418670054653 65 6290
2.731466498725 0.813151421454 0.566666666667 1.419843663242 63 6297
16.860509872003 0.711233863331 0.600000000000 2.053977674561 32 6310
8.626949849365 0.392218246809 0.500000000000 1.601996799825 45 6317
0.958249969887 0.873212355073 0.666666666667 1.555348228904 26 6319
0.246559227792 0.325802107083 0.266666666667 1.924568190745 59 6320
30.979409383711 0.376486089544 0.500000000000 1.746744783977 57 6327
0.869792440083 0.307975034145 0.466666666667 1.342122454167 53 6345
8.176867040222 0.518736188325 0.333333333333 1.252674669232 35 6352
4.562886055046 0.342077471023 0.466666666667 1.325593836982 42 6360
0.114450743081 0.504900800645 0.266666666667 1.983042248589 51 6362
1.331645224785 0.498296060481 0.633333333333 1.284254797578 46 6368
2.812607164138 0.473237241638 0.366666666667 1.271297770674 49 6369
0.227498030422 1.139555797389 0.200000000000 1.931877792462 48 6380
0.311802051337 1.110362197942 0.366666666667 1.649525028510 47 6381
1.949675650034 0.702909835090 0.533333333333 1.283570463535 46 6394
0.453662898144 0.704356770804 0.700000000000 1.622816028527 45 6399
4.540739839032 0.553436598835 0.466666666667 1.386771817722 43 6410
5.525653098637 0.966243903721 0.600000000000 1.660734411930 29 6411
25.476595834160 0.452429355898 0.466666666667 1.730647215820 35 6416
1.171236177223 0.327961022983 0.400000000000 1.443696210614 41 6427
0.329088088975 0.234034769730 0.633333333333 2.012697647350 38 6442
10.334346074565 1.509269807029 0.466666666667 1.689596008232 37 6450
0.235330052107 0.013996070463 0.066666666667 2.141144741857 33 6469
0.109771896290 0.252202711375 0.433333333333 1.573889718189 33 6471
23.551045151741 8.559876395458 0.000000000000 2.360620527424 32 6477
1.142511242512 0.416535803966 0.533333333333 1.465635946984 32 6478
7.950800321079 0.345971860683 0.366666666667 1.164418603691 32 6480
2.066838567688 0.459348333612 0.666666666667 1.598293432156 30 6487
1.310168514493 25.280528496007 1.000000000000 1.452101884551 25 6500
25.853230923883 0.555711908461 0.333333333333 2.026822861462 25 6517
